{
    "data": [
        {
            "id": 50,
            "name": "Pipeline de teste",
            "version": 2,
            "created": "2024-05-29T18:22:04",
            "updated": "2024-05-29T18:23:03",
            "user_name": "Administrador Lemonade"
        },
        {
            "id": 49,
            "name": "Sem etapas",
            "version": 10,
            "created": "2024-05-12T20:16:46",
            "updated": "2024-05-12T20:35:35",
            "user_name": "Administrador Lemonade"
        },
        {
            "id": 45,
            "name": "Pipeline Apresenta\u00e7\u00e3o MP",
            "version": 5,
            "created": "2024-04-25T11:17:15",
            "updated": "2024-04-25T11:20:12",
            "user_name": "Administrador Lemonade"
        },
        {
            "id": 44,
            "name": "Pipeline INSS",
            "version": 2,
            "created": "2024-04-24T23:30:18",
            "updated": "2024-04-24T23:30:18",
            "user_name": "Administrador Lemonade"
        },
        {
            "id": 41,
            "name": "Pipeline - An\u00e1lise de Dados",
            "version": 1,
            "created": "2024-03-20T14:16:38",
            "updated": "2024-03-20T14:16:38",
            "user_name": "Administrador Lemonade"
        },
        {
            "id": 40,
            "name": "Teste ",
            "version": 8,
            "created": "2024-03-14T12:21:23",
            "updated": "2024-05-09T20:42:55",
            "user_name": "Administrador Lemonade"
        },
        {
            "id": 38,
            "name": "Teste Walter",
            "version": 9,
            "created": "2024-02-23T12:16:32",
            "updated": "2024-03-14T05:04:15",
            "user_name": "Administrador Lemonade"
        },
        {
            "id": 37,
            "name": "Nova pipeline para teste #2",
            "version": 14,
            "created": "2024-01-31T04:29:45",
            "updated": "2024-02-23T18:33:01",
            "user_name": "Administrador Lemonade"
        },
        {
            "id": 36,
            "name": "Nova Pipeline Para Testes",
            "version": 86,
            "created": "2024-01-24T14:49:26",
            "updated": "2024-02-29T05:14:19",
            "user_name": "Administrador Lemonade"
        },
        {
            "id": 35,
            "name": "Pipeline Consumidor Gov Editado",
            "version": 4,
            "created": "2024-01-23T13:56:01",
            "updated": "2024-01-23T14:01:28",
            "user_name": "Administrador Lemonade"
        }
    ],
    "pagination": {
        "page": 1,
        "size": 10,
        "total": 16,
        "pages": 2
    }
}